4 Importation et exportation de donnée | Travaux dirigés d’Informatique
…
Il existe deux formats de fichier de données R : les fichiers .RDS et .RData. Les premiers contiennent un seul objet, tandis que les seconds peuvent en contenir plusieurs.

Dans le dossier L1 de l’archive importation_formats.zip que dont vous avez extrait le contenu se trouve deux fichiers de données R :

anglais.RDS : tableau de données contenant les notes d’anglais` ;

notes.RData : 8 tableaux de données (micro, macro, maths, info, stats, anglais, eco_envir, et finance).

Pour importer un fichier .RDS, on utilise la fonction readRDS(). De la même manière que pour read_delim(), il est nécessaire de stocker le résultat dans un objet.

notes_anglais <- readRDS(file = "importation_formats/L1/anglais.RDS")
notes_anglais

## # A tibble: 32 × 5
##    nom        prenom     id matiere    note
##    <chr>      <chr>   <dbl> <chr>     <dbl>
##  1 Amsberry   Evan        1 Anglais 1   4  
##  2 Basurto    Anthony     2 Anglais 1   5.5
##  3 Begaye     Kai         3 Anglais 1  11  
##  4 Brack      Michael     4 Anglais 1   1.5
##  5 Burgess    Jamie       5 Anglais 1   7  
##  6 Christian  Colton      6 Anglais 1   4  
##  7 Cly        Jesse       7 Anglais 1   5  
##  8 Coberley   Rebecca     8 Anglais 1   6  
##  9 De Venecia Madison     9 Anglais 1   6  
## 10 Gurule     Elliott    12 Anglais 1   6  
## # ℹ 22 more rows
…
