8 Régressions linéaires | Travaux dirigés d’Informatique
…
Créez un projet RStudio pour ce chapitre (cf. le chapitre d’initiation à R). Pensez bien à créer le répertoire Data dans le répertoire contenant le fichier de projet .Rproj.

Les données ont été mesurées sur des étudiantes et étudiants de l’Université de Rennes 1. Elles sont disponibles dans un fichier CSV à l’adresse suivante : https://egallic.fr/Enseignement/L3_EcoFi/Exercices/empan.csv. Téléchargeons ces données et enregistrons le fichier dans le répertoire Data :

download.file("https://egallic.fr/Enseignement/L3_EcoFi/Exercices/empan.csv",
              destfile = "Data/empan.csv")

Puis, chargeons-le dans R :

library(tidyverse)
df_empan <- read_csv("Data/empan.csv")
df_empan

## # A tibble: 40 × 6
##    empan_main_forte empan_main_faible   age genre taille forte
##               <dbl>             <dbl> <dbl> <chr>  <dbl> <chr>
##  1             19                19      19 H        172 D    
##  2             20.5              20.5    27 H        179 G    
##  3             21                21      26 H        179 G    
##  4             19                19      27 F        160 D    
##  5             21                22      25 H        186 D    
##  6             19                18.5    25 H        178 D    
##  7             19                19      20 H        182 B    
##  8             21                22      21 H        179 D    
##  9             23                22      19 H        186 D    
## 10             20                20      20 F        163 D    
## # ℹ 30 more rows
…
