8 Statistiques descriptives | Travaux dirigés d’Informatique
…
jobs
Nombre d’emplois précédents listés dans le CV

experience
Nombre d’années d’expériences listées dans le CV

Créons un objet contenant uniquement les colonnes mentionnées dans le Tableau 1.1.

resumes <- 
  ResumeNames %>% 
  select(name, gender, ethnicity, call, city, jobs, experience) %>% 
  as_tibble()
resumes

## # A tibble: 4,870 × 7
##    name    gender ethnicity call  city     jobs experience
##    <fct>   <fct>  <fct>     <fct> <fct>   <int>      <int>
##  1 Allison female cauc      no    chicago     2          6
##  2 Kristen female cauc      no    chicago     3          6
##  3 Lakisha female afam      no    chicago     1          6
##  4 Latonya female afam      no    chicago     4          6
##  5 Carrie  female cauc      no    chicago     3         22
##  6 Jay     male   cauc      no    chicago     2          6
##  7 Jill    female cauc      no    chicago     2          5
##  8 Kenya   female afam      no    chicago     4         21
##  9 Latonya female afam      no    chicago     3          3
## 10 Tyrone  male   afam      no    chicago     2          6
## # … with 4,860 more rows
…
Il est possible de fournir à l’argument label= de la fonction tbl_summary() les étiquettes à utiliser pour chaque variable, plutôt que de passer par la définition des étiquettes via l’ajout d’un attribut aux colonnes avec la fonction set_variable_labels().

Le nom des différents sous-groupes constitués à l’aide de la variable dont le nom est fourni à l’argument by= de la fonction tbl_summary() sont définis selon les valeurs présentes dans le tableau. Pour recoder les valeurs d’une variable factorielle, nous pouvons utiliser la fonction recode() de {dplyr}. Attention, la syntaxe est assez peu heureuse, dans la mesure où elle est à contre courant de ce que l’on peut trouver avec la fonction rename() (fonction permettant de renommer les colonnes d’un tableau de données) : on écrit l’ancien nomn, puis après un symbole égal (=) le nouveau nom, dans une chaîne de caractères.

resumes <- 
  resumes %>% 
  mutate(
    gender = recode(gender, female = "femme", male = "homme"),
    ethnicity = recode(ethnicity, cauc = "Caucasien", afam = "Afro-americain"),
    call = recode(call, no = "Non", yes = "Oui")
  )

resumes

## # A tibble: 4,870 × 7
##    name    gender ethnicity      call  city     jobs experience
##    <fct>   <fct>  <fct>          <fct> <fct>   <int>      <int>
##  1 Allison femme  Caucasien      Non   chicago     2          6
##  2 Kristen femme  Caucasien      Non   chicago     3          6
##  3 Lakisha femme  Afro-americain Non   chicago     1          6
##  4 Latonya femme  Afro-americain Non   chicago     4          6
##  5 Carrie  femme  Caucasien      Non   chicago     3         22
##  6 Jay     homme  Caucasien      Non   chicago     2          6
##  7 Jill    femme  Caucasien      Non   chicago     2          5
##  8 Kenya   femme  Afro-americain Non   chicago     4         21
##  9 Latonya femme  Afro-americain Non   chicago     3          3
## 10 Tyrone  homme  Afro-americain Non   chicago     2          6
## # … with 4,860 more rows
…
