5 Tableaux de données | Travaux dirigés d’Informatique
…
À présent, dans R, dans un objet que vous appellerez notes_L1, importez les données dans un tableau depuis le fichier notes_L1.csv.

Dans un objet que vous appellerez notes_L2, importez les données dans un tableau depuis le fichier notes_L2.csv.

En appelant les deux tableaux dans la console, vous devez voir les aperçus suivants :

notes_L1

## # A tibble: 224 × 5
##    nom        prenom     id matiere          note
##    <chr>      <chr>   <dbl> <chr>           <dbl>
##  1 Amsberry   Evan        1 Microéconomie 1  11.5
##  2 Basurto    Anthony     2 Microéconomie 1   9  
##  3 Begaye     Kai         3 Microéconomie 1  16.5
##  4 Brack      Michael     4 Microéconomie 1   4  
##  5 Burgess    Jamie       5 Microéconomie 1   6.5
##  6 Christian  Colton      6 Microéconomie 1  14.5
##  7 Cly        Jesse       7 Microéconomie 1   2.5
##  8 Coberley   Rebecca     8 Microéconomie 1  20  
##  9 De Venecia Madison     9 Microéconomie 1   6  
## 10 Gurule     Elliott    12 Microéconomie 1   7.5
## # ℹ 214 more rows

notes_L2

## # A tibble: 217 × 5
##    nom        prenom     id matiere          note
##    <chr>      <chr>   <dbl> <chr>           <dbl>
##  1 Amsberry   Evan        1 Microéconomie 2   5.5
##  2 Basurto    Anthony     2 Microéconomie 2   5  
##  3 Begaye     Kai         3 Microéconomie 2   8.5
##  4 Brack      Michael     4 Microéconomie 2   5  
##  5 Burgess    Jamie       5 Microéconomie 2   9  
##  6 Christian  Colton      6 Microéconomie 2  20  
##  7 Coberley   Rebecca     8 Microéconomie 2  15.5
##  8 De Venecia Madison     9 Microéconomie 2   5.5
##  9 Dewitt     Amelia     10 Microéconomie 2   6.5
## 10 Eisenberg  Kelly      11 Microéconomie 2   7  
## # ℹ 207 more rows
…
À partir du tableau notes_L1, créez le tableau eleves qui contiendra uniquement les colonnes nom, prenom et id.

Appliquez la fonction unique() au tableau eleves pour ne conserver dans le tableau eleves que les enregistrements distincts (de sorte à avoir 1 ligne correspondant à une seule personne).

5.5 Création/Modification d’une nouvelle colonne

Le package {tidyverse} offre une fonction permettant de créer ou de modifier une colonne d’un tableau de données : mutate(). Son premier argument est le tableau de données, le ou les arguments suivants correspondent aux colonnes à créer ou modifier.

Illustrons le fonctionnement de cette fonction en ramenant les notes de la colonne note de tableau sur 10 plutôt que sur 20. Appelons notes_10 la colonne contenant les résultats de la division par deux des valeurs de la colonne note :

notes_L1 <- mutate(notes_L1, notes_10 = note/2)
notes_L1

## # A tibble: 224 × 6
##    nom        prenom     id matiere          note notes_10
##    <chr>      <chr>   <dbl> <chr>           <dbl>    <dbl>
##  1 Amsberry   Evan        1 Microéconomie 1  11.5     5.75
##  2 Basurto    Anthony     2 Microéconomie 1   9       4.5 
##  3 Begaye     Kai         3 Microéconomie 1  16.5     8.25
##  4 Brack      Michael     4 Microéconomie 1   4       2   
##  5 Burgess    Jamie       5 Microéconomie 1   6.5     3.25
##  6 Christian  Colton      6 Microéconomie 1  14.5     7.25
##  7 Cly        Jesse       7 Microéconomie 1   2.5     1.25
##  8 Coberley   Rebecca     8 Microéconomie 1  20      10   
##  9 De Venecia Madison     9 Microéconomie 1   6       3   
## 10 Gurule     Elliott    12 Microéconomie 1   7.5     3.75
## # ℹ 214 more rows

Admettons à présent que l’on souhaite ajouter 1 point à l’ensemble des élèves :

notes_L1 <- mutate(notes_L1, notes_10_augmentees = notes_10 +1)

Regardons les valeurs, en utilisant la fonction select() pour éviter d’afficher toutes les colonnes :

select(notes_L1, nom, note, notes_10, notes_10_augmentees)

## # A tibble: 224 × 4
##    nom         note notes_10 notes_10_augmentees
##    <chr>      <dbl>    <dbl>               <dbl>
##  1 Amsberry    11.5     5.75                6.75
##  2 Basurto      9       4.5                 5.5 
##  3 Begaye      16.5     8.25                9.25
##  4 Brack        4       2                   3   
##  5 Burgess      6.5     3.25                4.25
##  6 Christian   14.5     7.25                8.25
##  7 Cly          2.5     1.25                2.25
##  8 Coberley    20      10                  11   
##  9 De Venecia   6       3                   4   
## 10 Gurule       7.5     3.75                4.75
## # ℹ 214 more rows

Admettons que l’on souhaite ajouter 1 autre point à l’ensemble des élèves. Cette fois, nous allons modifier la colonne notes_10_augmentees en récupérant la valeur déjà présente, puis en lui ajoutante la valeur 1.

notes_L1 <- mutate(notes_L1, notes_10_augmentees = notes_10_augmentees +1)

Regardons à nouveau les valeurs, en utilisant la fonction select() pour éviter d’afficher toutes les colonnes :

select(notes_L1, nom, note, notes_10, notes_10_augmentees)

## # A tibble: 224 × 4
##    nom         note notes_10 notes_10_augmentees
##    <chr>      <dbl>    <dbl>               <dbl>
##  1 Amsberry    11.5     5.75                7.75
##  2 Basurto      9       4.5                 6.5 
##  3 Begaye      16.5     8.25               10.2 
##  4 Brack        4       2                   4   
##  5 Burgess      6.5     3.25                5.25
##  6 Christian   14.5     7.25                9.25
##  7 Cly          2.5     1.25                3.25
##  8 Coberley    20      10                  12   
##  9 De Venecia   6       3                   5   
## 10 Gurule       7.5     3.75                5.75
## # ℹ 214 more rows

Ainsi, lorsque le nom de la colonne que l’on donne en argument de la fonction select() est déjà présent dans le tableau donné en premier argument, la fonction select() effectue une modification de cette colonne. Si le nom de colonne fait référence à une colonne qui n’existe pas dans le tableau, alors la fonction select() créé une nouvelle colonne.

Ces opérations en plusieurs étapes peuvent se réaliser à l’aide d’une seule instruction :

notes_L1 <- mutate(notes_L1,
                   notes_10 = note / 2,
                   notes_10_augmentees = notes_10 + 1,
                   notes_10_augmentees = notes_10_augmentees + 1)
select(notes_L1, nom, note, notes_10, notes_10_augmentees)

## # A tibble: 224 × 4
##    nom         note notes_10 notes_10_augmentees
##    <chr>      <dbl>    <dbl>               <dbl>
##  1 Amsberry    11.5     5.75                7.75
##  2 Basurto      9       4.5                 6.5 
##  3 Begaye      16.5     8.25               10.2 
##  4 Brack        4       2                   4   
##  5 Burgess      6.5     3.25                5.25
##  6 Christian   14.5     7.25                9.25
##  7 Cly          2.5     1.25                3.25
##  8 Coberley    20      10                  12   
##  9 De Venecia   6       3                   5   
## 10 Gurule       7.5     3.75                5.75
## # ℹ 214 more rows
Exercice

Dans le tableau notes_L1, créez la colonne notes_100 qui contiendra les notes exprimées sur 100 points et non pas sur 20.

5.6 Renommer une colonne

Pour renommer une colonne, le package {dplyr} propose la fonction rename(). Elle s’applique directement à un tableau de données et retourne un tableau de données. Il suffit d’indiquer le nouveau nom suivi du symbole égal (=) puis de l’ancien nom. Lorsqu’un nom n’est pas conventionnel, on utilise l’accent grave (`, backtick) pour entourer le nom :

notes_L1 <- 
  rename(notes_L1,
         notes_dix = notes_10,
         `notes 10 augmentees` = notes_10_augmentees)
notes_L1

## # A tibble: 224 × 7
##    nom        prenom     id matiere         note notes_dix `notes 10 augmentees`
##    <chr>      <chr>   <dbl> <chr>          <dbl>     <dbl>                 <dbl>
##  1 Amsberry   Evan        1 Microéconomie…  11.5      5.75                  7.75
##  2 Basurto    Anthony     2 Microéconomie…   9        4.5                   6.5 
##  3 Begaye     Kai         3 Microéconomie…  16.5      8.25                 10.2 
##  4 Brack      Michael     4 Microéconomie…   4        2                     4   
##  5 Burgess    Jamie       5 Microéconomie…   6.5      3.25                  5.25
##  6 Christian  Colton      6 Microéconomie…  14.5      7.25                  9.25
##  7 Cly        Jesse       7 Microéconomie…   2.5      1.25                  3.25
##  8 Coberley   Rebecca     8 Microéconomie…  20       10                    12   
##  9 De Venecia Madison     9 Microéconomie…   6        3                     5   
## 10 Gurule     Elliott    12 Microéconomie…   7.5      3.75                  5.75
## # ℹ 214 more rows

5.7 Filtrage

Pour conserver uniquement les lignes d’un tableau qui remplissent les conditions d’un filtre, la fonction filter() du package {dplyr} s’avère être très pratique. Cette fonction qui fait égalemnt partie de l’environnement {tidyverse}, s’applique directement à un tableau de données, et retourne un tableau de données comprenant les lignes pour lesquels le filtre retourne une valeur logique TRUE.

Le premier argument de la fonction filter() est le tableau de données. Les arguments suivants correspondent au(x) filtre(s) à appliquer. Par exemple, pour conserver uniquement les lignes du tableau notes_L1 pour lesquelles la note est inférieure à 10 :

filter(notes_L1, note < 10)

## # A tibble: 148 × 7
##    nom        prenom     id matiere         note notes_dix `notes 10 augmentees`
##    <chr>      <chr>   <dbl> <chr>          <dbl>     <dbl>                 <dbl>
##  1 Basurto    Anthony     2 Microéconomie…   9        4.5                   6.5 
##  2 Brack      Michael     4 Microéconomie…   4        2                     4   
##  3 Burgess    Jamie       5 Microéconomie…   6.5      3.25                  5.25
##  4 Cly        Jesse       7 Microéconomie…   2.5      1.25                  3.25
##  5 De Venecia Madison     9 Microéconomie…   6        3                     5   
##  6 Gurule     Elliott    12 Microéconomie…   7.5      3.75                  5.75
##  7 Israel     Joshua     14 Microéconomie…   4        2                     4   
##  8 Jacket     Kanae      15 Microéconomie…   6.5      3.25                  5.25
##  9 Kinney     Jonah      17 Microéconomie…   2        1                     3   
## 10 Ledbetter  Conor      18 Microéconomie…   9        4.5                   6.5 
## # ℹ 138 more rows

Pour chaque ligne, le test logique consistant à regarder si la valeur de la colonne note est strictement supérieure à 10 est réalisé. Si la valeur retournée est TRUE, la ligne est retournée. Dans tous les autres cas, la ligne est retirée du résultat.

Des filtres plus complexes peuvent être réalisés, à l’aide des opérateurs logiques présentés dans la section portant sur l’indexation par condition (ET logique &, OU logique |, ! négation logique).

Par exemple, pour obtenir les lignes du tableau notes_L1 dont la valeur de la colonne note est comprise dans l’intervalle \([10;12]\), on écrira :

filter(notes_L1, note >= 10 & note <= 12)

## # A tibble: 32 × 7
##    nom              prenom     id matiere   note notes_dix `notes 10 augmentees`
##    <chr>            <chr>   <dbl> <chr>    <dbl>     <dbl>                 <dbl>
##  1 Amsberry         Evan        1 Microéc…  11.5      5.75                  7.75
##  2 Medicine Blanket Robert     23 Microéc…  11        5.5                   7.5 
##  3 Thiede           Tyler      33 Microéc…  10.5      5.25                  7.25
##  4 Gurule           Elliott    12 Macroéc…  12        6                     8   
##  5 Medicine Blanket Robert     23 Macroéc…  10.5      5.25                  7.25
##  6 Pereyra          Emilie     27 Macroéc…  11.5      5.75                  7.75
##  7 Jacket           Kanae      15 Mathéma…  11.5      5.75                  7.75
##  8 Oyebi            Rachael    26 Mathéma…  12        6                     8   
##  9 Joy              Michael    16 Informa…  10        5                     7   
## 10 Kinney           Jonah      17 Informa…  10        5                     7   
## # ℹ 22 more rows
…
## [1] 8.484375

Bien qu’il soit possible de continuer, on se rend rapidement compte que ce calcul répétitif est pénible. Heureusement, {tidyverse} propose une combo de fonctions qui permet de grouper les observations d’un tableau dans un premier temps, puis d’appliquer une fonction à une ou plusieurs colonnes à chacun des sous groupes, et enfin de retourner le résultat. Ces fonctions sont les suivantes :

group_by() : dans un premier temps, les données du tableau sont regroupées selon les modalités d’une ou de plusieurs colonnes. Il s’agit de créer des sous-groupes dans le tableau de données. Dans notre cas, nous allons effectuer le regroupement selon les valeurs prises par la colonne matiere.

summarise() : dans un deuxième temps, pour chaque groupe, les observations des lignes sont agrégées, résumées.

Regroupons les observations de notes_L1 en fonction des valeurs de la colonne matière (la microéconomie 1 avec la microéconomie 1, la macroéconomie 1 avec la macroéconomie 1, etc.) :

group_by(notes_L1, matiere)

## # A tibble: 224 × 7
## # Groups:   matiere [8]
##    nom        prenom     id matiere         note notes_dix `notes 10 augmentees`
##    <chr>      <chr>   <dbl> <chr>          <dbl>     <dbl>                 <dbl>
##  1 Amsberry   Evan        1 Microéconomie…  11.5      5.75                  7.75
##  2 Basurto    Anthony     2 Microéconomie…   9        4.5                   6.5 
##  3 Begaye     Kai         3 Microéconomie…  16.5      8.25                 10.2 
##  4 Brack      Michael     4 Microéconomie…   4        2                     4   
##  5 Burgess    Jamie       5 Microéconomie…   6.5      3.25                  5.25
##  6 Christian  Colton      6 Microéconomie…  14.5      7.25                  9.25
##  7 Cly        Jesse       7 Microéconomie…   2.5      1.25                  3.25
##  8 Coberley   Rebecca     8 Microéconomie…  20       10                    12   
##  9 De Venecia Madison     9 Microéconomie…   6        3                     5   
## 10 Gurule     Elliott    12 Microéconomie…   7.5      3.75                  5.75
## # ℹ 214 more rows
…
regroupez les valeurs par les colonnes nom, prenom, id

calculez la moyenne de la colonne note pour chaque sous-groupe.

Retrouvez dans le tableau ainsi obtenu la moyenne de Rebecca Coberley

5.10 Tri

La fonction arrange() du package {dplyr} permet d’ordonner les observations par valeurs croissantes ou décroissantes d’une ou de plusieurs colonnes. À nouveau, le premier argument attendu est un tableau de données, et le résultat est un tableau de données. Les arguments suivants sont les noms des colonnes sur lesquels effectuer le tri. Par défaut, le tri se fait par valeurs croissantes.

Par exemple, pour trier les valeurs par valeurs croissantes de la colonne notes, on écrit simplement :

arrange(notes_L1, note)

## # A tibble: 224 × 7
##    nom        prenom      id matiere        note notes_dix `notes 10 augmentees`
##    <chr>      <chr>    <dbl> <chr>         <dbl>     <dbl>                 <dbl>
##  1 Lehi       Savannah    19 Informatique…   1        0.5                   2.5 
##  2 Cly        Jesse        7 Mathématique…   1.5      0.75                  2.75
##  3 De Venecia Madison      9 Mathématique…   1.5      0.75                  2.75
##  4 Brack      Michael      4 Anglais 1       1.5      0.75                  2.75
##  5 Lucero     Cole        21 Economie env…   1.5      0.75                  2.75
##  6 Brack      Michael      4 Finance 1       1.5      0.75                  2.75
##  7 Kinney     Jonah       17 Microéconomi…   2        1                     3   
##  8 Cly        Jesse        7 Macroéconomi…   2        1                     3   
##  9 Slovonsky  Tevin       32 Informatique…   2        1                     3   
## 10 Thiede     Tyler       33 Informatique…   2        1                     3   
## # ℹ 214 more rows

Pour trier par valeurs décroissantes, on applique la fonction desc() sur le nom de la colonne, à l’intérieur de la fonction arrange :

arrange(notes_L1, desc(note))

## # A tibble: 224 × 7
##    nom              prenom     id matiere   note notes_dix `notes 10 augmentees`
##    <chr>            <chr>   <dbl> <chr>    <dbl>     <dbl>                 <dbl>
##  1 Coberley         Rebecca     8 Microéc…    20      10                    12  
##  2 Joy              Michael    16 Microéc…    20      10                    12  
##  3 Massey           Taylor     22 Mathéma…    20      10                    12  
##  4 Medicine Blanket Robert     23 Mathéma…    20      10                    12  
##  5 Scholer          Julia      31 Informa…    20      10                    12  
##  6 Riley            Paige      28 Statist…    20      10                    12  
##  7 Rosen            Richard    29 Anglais…    20      10                    12  
##  8 Rosen            Richard    29 Economi…    20      10                    12  
##  9 Begaye           Kai         3 Statist…    19       9.5                  11.5
## 10 Scholer          Julia      31 Statist…    19       9.5                  11.5
## # ℹ 214 more rows

Lorsque une colonne utilisée pour faire un tri est une chaîne de caractères, l’ordre alphanumérique est utilisé :

arrange(notes_L1, nom)

## # A tibble: 224 × 7
##    nom      prenom     id matiere           note notes_dix `notes 10 augmentees`
##    <chr>    <chr>   <dbl> <chr>            <dbl>     <dbl>                 <dbl>
##  1 Amsberry Evan        1 Microéconomie 1   11.5      5.75                  7.75
##  2 Amsberry Evan        1 Macroéconomie 1    7.5      3.75                  5.75
##  3 Amsberry Evan        1 Mathématiques 1    5        2.5                   4.5 
##  4 Amsberry Evan        1 Informatique 1     5.5      2.75                  4.75
##  5 Amsberry Evan        1 Statistiques 1     9        4.5                   6.5 
##  6 Amsberry Evan        1 Anglais 1          4        2                     4   
##  7 Amsberry Evan        1 Economie enviro…   6        3                     5   
##  8 Basurto  Anthony     2 Microéconomie 1    9        4.5                   6.5 
##  9 Basurto  Anthony     2 Macroéconomie 1    4.5      2.25                  4.25
## 10 Basurto  Anthony     2 Mathématiques 1    6        3                     5   
## # ℹ 214 more rows

Selon l’ordre alphanumérique, les caractères spéciaux apparaissent en premier, suivis des valeurs numériques, puis par les lettres.

Pour trier par une colonne, puis par une autre, il suffit d’ajouter les noms des colonnes en arguments. L’ordre d’énumération définit l’ordre du tri. Par exemple, pour trier par valeurs croissantes des matières (colonne matiere), puis, pour chaque matière, par valeurs décroissantes des notes (colonne note) :

arrange(notes_L1, matiere, desc(note))

## # A tibble: 224 × 7
##    nom              prenom     id matiere   note notes_dix `notes 10 augmentees`
##    <chr>            <chr>   <dbl> <chr>    <dbl>     <dbl>                 <dbl>
##  1 Rosen            Richard    29 Anglais…  20       10                    12   
##  2 Joy              Michael    16 Anglais…  13.5      6.75                  8.75
##  3 Massey           Taylor     22 Anglais…  13        6.5                   8.5 
##  4 Begaye           Kai         3 Anglais…  11        5.5                   7.5 
##  5 Medicine Blanket Robert     23 Anglais…  10.5      5.25                  7.25
##  6 Pereyra          Emilie     27 Anglais…  10        5                     7   
##  7 Mullins          Brenna     24 Anglais…   9.5      4.75                  6.75
##  8 Slovonsky        Tevin      32 Anglais…   9.5      4.75                  6.75
##  9 Schlaver         Lexa       30 Anglais…   9        4.5                   6.5 
## 10 Kinney           Jonah      17 Anglais…   8.5      4.25                  6.25
## # ℹ 214 more rows
…
